{
    "d9e104f5-bebb-45de-8702-b7de2a84f8d7": {
        "key": "d9e104f5-bebb-45de-8702-b7de2a84f8d7",
        "series_number": {
            "$key": "63354dd9-c552-49c3-91bc-fa05228d2a90",
            "$table": "KernelVersion"
        },
        "series_number_collapsed": "52"
    }
}