{
    "017efc77-36f0-4cd1-9a18-2506c9451288": {
        "key": "017efc77-36f0-4cd1-9a18-2506c9451288",
        "type": "stable",
        "build_job_id": "364709593",
        "version": {
            "$key": "284fbbb3-87a2-401f-b583-c22d96987ccb",
            "$table": "KernelVersion"
        },
        "kernel_series": {
            "$key": "10b79fe1-6d36-4998-b1c0-f5683c414f6f",
            "$table": "KernelSeries"
        },
        "workspace": {
            "$key": "70571723-f926-420f-a948-51d67f12d619",
            "$table": "Workspace"
        }
    }
}