{
    "118b1b87-57b2-4604-9f3a-2125a73d415f": {
        "key": "118b1b87-57b2-4604-9f3a-2125a73d415f",
        "type": "stable",
        "build_job_id": "224625628",
        "version": {
            "$key": "24acb837-a70a-4a2e-a981-fdb9843f47c1",
            "$table": "KernelVersion"
        },
        "kernel_series": {
            "$key": "fc683acd-38f8-4163-b6cf-e6cecaa6fd07",
            "$table": "KernelSeries"
        },
        "workspace": {
            "$key": "d2135fd1-3f59-4bf6-814b-c807c1f7eff9",
            "$table": "Workspace"
        }
    }
}