{
    "249a00b6-3232-47ae-b597-e1f7924a795a": {
        "key": "249a00b6-3232-47ae-b597-e1f7924a795a",
        "type": "stable",
        "build_job_id": "205868864",
        "version": {
            "$key": "c4ca9e60-98ac-4515-adfe-aa90fd2f0fe6",
            "$table": "KernelVersion"
        },
        "kernel_series": {
            "$key": "e7b394ff-e108-4ff9-816d-bb7d36ea5e7d",
            "$table": "KernelSeries"
        },
        "workspace": {
            "$key": "2a164900-77b2-4ae6-bcf6-58de62e59924",
            "$table": "Workspace"
        }
    }
}