{
    "2aa2945d-eb47-4eae-97f1-573473999360": {
        "key": "2aa2945d-eb47-4eae-97f1-573473999360",
        "type": "stable",
        "build_job_id": "697555395",
        "version": {
            "$key": "578a2502-086c-4a2b-b1c9-84731fa37215",
            "$table": "KernelVersion"
        },
        "kernel_series": {
            "$key": "0a874ce2-6d69-4c3d-b375-806bed37e47f",
            "$table": "KernelSeries"
        },
        "workspace": {
            "$key": "8b64bbb4-15a6-4182-a6f8-8c18da47c46e",
            "$table": "Workspace"
        }
    }
}