{
    "2b4b2e93-3d8f-4bd9-8fb8-c89e944eb70d": {
        "key": "2b4b2e93-3d8f-4bd9-8fb8-c89e944eb70d",
        "type": "stable",
        "build_job_id": "693104053",
        "version": {
            "$key": "6f5387c0-01c6-482a-aaa3-8445744f1b3a",
            "$table": "KernelVersion"
        },
        "kernel_series": {
            "$key": "0a874ce2-6d69-4c3d-b375-806bed37e47f",
            "$table": "KernelSeries"
        },
        "workspace": {
            "$key": "8b64bbb4-15a6-4182-a6f8-8c18da47c46e",
            "$table": "Workspace"
        }
    }
}