{
    "330e1d04-7629-40b9-92e3-09c2c0972926": {
        "key": "330e1d04-7629-40b9-92e3-09c2c0972926",
        "type": "stable",
        "build_job_id": "260727465",
        "version": {
            "$key": "50c18cdb-afa8-45e0-aab3-cc41cb152c21",
            "$table": "KernelVersion"
        },
        "kernel_series": {
            "$key": "d9e104f5-bebb-45de-8702-b7de2a84f8d7",
            "$table": "KernelSeries"
        },
        "workspace": {
            "$key": "d2135fd1-3f59-4bf6-814b-c807c1f7eff9",
            "$table": "Workspace"
        }
    }
}