{
    "3ec5377a-99ad-4cc5-b9bb-e96449130c28": {
        "key": "3ec5377a-99ad-4cc5-b9bb-e96449130c28",
        "type": "stable",
        "build_job_id": "213966602",
        "version": {
            "$key": "6dae2c66-8af8-4e2c-881b-2bc854442a04",
            "$table": "KernelVersion"
        },
        "kernel_series": {
            "$key": "e7b394ff-e108-4ff9-816d-bb7d36ea5e7d",
            "$table": "KernelSeries"
        },
        "workspace": {
            "$key": "2a164900-77b2-4ae6-bcf6-58de62e59924",
            "$table": "Workspace"
        }
    }
}