{
    "3ff3e41c-9e0a-4b1c-af5c-791dd2e74f4e": {
        "key": "3ff3e41c-9e0a-4b1c-af5c-791dd2e74f4e",
        "type": "stable",
        "build_job_id": "212449505",
        "version": {
            "$key": "ad0eb8df-62da-4c15-8194-dac49110ea93",
            "$table": "KernelVersion"
        },
        "kernel_series": {
            "$key": "e7b394ff-e108-4ff9-816d-bb7d36ea5e7d",
            "$table": "KernelSeries"
        },
        "workspace": {
            "$key": "2a164900-77b2-4ae6-bcf6-58de62e59924",
            "$table": "Workspace"
        }
    }
}