{
    "4708bba7-a0ea-4d35-a10e-d316adae94ad": {
        "key": "4708bba7-a0ea-4d35-a10e-d316adae94ad",
        "type": "stable",
        "build_job_id": "776890189",
        "version": {
            "$key": "cd4d1374-fb06-44fb-ae1c-0d6300edabab",
            "$table": "KernelVersion"
        },
        "kernel_series": {
            "$key": "f5fca8d2-00f5-47f4-9604-e001f70daec2",
            "$table": "KernelSeries"
        },
        "workspace": {
            "$key": "8b64bbb4-15a6-4182-a6f8-8c18da47c46e",
            "$table": "Workspace"
        }
    }
}