{
    "49cd4fa9-9b0e-4c1d-9f38-779b67a1be71": {
        "key": "49cd4fa9-9b0e-4c1d-9f38-779b67a1be71",
        "type": "stable",
        "build_job_id": "130399238",
        "version": {
            "$key": "d6472236-f684-4901-a650-64c43a3af017",
            "$table": "KernelVersion"
        },
        "kernel_series": {
            "$key": "db25ab70-b6ca-4887-a07e-9acf2552b0b0",
            "$table": "KernelSeries"
        },
        "workspace": {
            "$key": "112ecf7f-72dd-412d-97d9-5bf891923acd",
            "$table": "Workspace"
        }
    }
}