{
    "5af7eedd-1898-4a11-9109-f8fe7dd394ee": {
        "key": "5af7eedd-1898-4a11-9109-f8fe7dd394ee",
        "type": "mainline",
        "build_job_id": "322630453",
        "version": {
            "$key": "d561e63f-1dc3-4ad2-b1e4-de3316cd4c2c",
            "$table": "KernelVersion"
        },
        "kernel_series": {
            "$key": "10b79fe1-6d36-4998-b1c0-f5683c414f6f",
            "$table": "KernelSeries"
        },
        "workspace": {
            "$key": "70571723-f926-420f-a948-51d67f12d619",
            "$table": "Workspace"
        }
    }
}