{
    "5bf30daf-f2e8-4328-b8d3-561abf23d2f2": {
        "key": "5bf30daf-f2e8-4328-b8d3-561abf23d2f2",
        "type": "mainline",
        "build_job_id": "556308289",
        "version": {
            "$key": "38c3b7f6-1e3c-4ccb-b8d3-de502924d3c4",
            "$table": "KernelVersion"
        },
        "kernel_series": {
            "$key": "0a874ce2-6d69-4c3d-b375-806bed37e47f",
            "$table": "KernelSeries"
        },
        "workspace": {
            "$key": "8b64bbb4-15a6-4182-a6f8-8c18da47c46e",
            "$table": "Workspace"
        }
    }
}