{
    "65835ce6-4096-44f3-a494-44352cb96621": {
        "key": "65835ce6-4096-44f3-a494-44352cb96621",
        "type": "mainline",
        "build_job_id": "260850948",
        "version": {
            "$key": "fc2a1f31-e743-47d3-af0c-7b27118d24ec",
            "$table": "KernelVersion"
        },
        "kernel_series": {
            "$key": "a33396ca-c7ad-4f97-9c92-72ac341f361c",
            "$table": "KernelSeries"
        },
        "workspace": {
            "$key": "d2135fd1-3f59-4bf6-814b-c807c1f7eff9",
            "$table": "Workspace"
        }
    }
}