{
    "6a3e6cd3-3074-4b7a-9a0d-eae343d0b993": {
        "key": "6a3e6cd3-3074-4b7a-9a0d-eae343d0b993",
        "type": "mainline",
        "build_job_id": "138393820",
        "version": {
            "$key": "6b124789-6a9a-4468-bac6-7d5889f69347",
            "$table": "KernelVersion"
        },
        "kernel_series": {
            "$key": "83aea4d0-b730-46d1-928e-cbb0afb57827",
            "$table": "KernelSeries"
        },
        "workspace": {
            "$key": "de136960-11fb-4d66-94ee-deab390f2e1e",
            "$table": "Workspace"
        }
    }
}