{
    "89042683-9bc9-412f-9aa4-eb716bf1abfe": {
        "key": "89042683-9bc9-412f-9aa4-eb716bf1abfe",
        "type": "stable",
        "build_job_id": "759049945",
        "version": {
            "$key": "7064c65a-7c8a-49b5-b47b-7ceaac0131b0",
            "$table": "KernelVersion"
        },
        "kernel_series": {
            "$key": "f5fca8d2-00f5-47f4-9604-e001f70daec2",
            "$table": "KernelSeries"
        },
        "workspace": {
            "$key": "8b64bbb4-15a6-4182-a6f8-8c18da47c46e",
            "$table": "Workspace"
        }
    }
}