{
    "89d59576-794b-44ba-8673-ef3c9fe844a4": {
        "key": "89d59576-794b-44ba-8673-ef3c9fe844a4",
        "type": "stable",
        "build_job_id": "369844645",
        "version": {
            "$key": "38f80e47-c929-46d5-afec-edf4fbaebe16",
            "$table": "KernelVersion"
        },
        "kernel_series": {
            "$key": "a33396ca-c7ad-4f97-9c92-72ac341f361c",
            "$table": "KernelSeries"
        },
        "workspace": {
            "$key": "d2135fd1-3f59-4bf6-814b-c807c1f7eff9",
            "$table": "Workspace"
        }
    }
}