{
    "8b795102-b0fe-464a-b5e2-97927c157c06": {
        "key": "8b795102-b0fe-464a-b5e2-97927c157c06",
        "type": "stable",
        "build_job_id": "244678347",
        "version": {
            "$key": "065448f1-ea1c-48b9-b898-20a09557ecf5",
            "$table": "KernelVersion"
        },
        "kernel_series": {
            "$key": "fc683acd-38f8-4163-b6cf-e6cecaa6fd07",
            "$table": "KernelSeries"
        },
        "workspace": {
            "$key": "d2135fd1-3f59-4bf6-814b-c807c1f7eff9",
            "$table": "Workspace"
        }
    }
}