{
    "908dc41b-218a-4bf8-b601-525fc9e067d6": {
        "key": "908dc41b-218a-4bf8-b601-525fc9e067d6",
        "type": "stable",
        "build_job_id": "216974631",
        "version": {
            "$key": "9e0e6479-f995-42ea-b5ff-5cdda051348b",
            "$table": "KernelVersion"
        },
        "kernel_series": {
            "$key": "e7b394ff-e108-4ff9-816d-bb7d36ea5e7d",
            "$table": "KernelSeries"
        },
        "workspace": {
            "$key": "2a164900-77b2-4ae6-bcf6-58de62e59924",
            "$table": "Workspace"
        }
    }
}