{
    "97478f27-8dc7-4833-8ac7-d142c94cd0a6": {
        "key": "97478f27-8dc7-4833-8ac7-d142c94cd0a6",
        "type": "stable",
        "build_job_id": "548804339",
        "version": {
            "$key": "5f375765-3722-469e-941a-2bba7ba03d7f",
            "$table": "KernelVersion"
        },
        "kernel_series": {
            "$key": "d72105d8-8ae2-4c03-b4a4-aac11db1edfe",
            "$table": "KernelSeries"
        },
        "workspace": {
            "$key": "8b64bbb4-15a6-4182-a6f8-8c18da47c46e",
            "$table": "Workspace"
        }
    }
}