{
    "9810df02-f6f4-4df9-9171-d63017e45591": {
        "key": "9810df02-f6f4-4df9-9171-d63017e45591",
        "type": "stable",
        "build_job_id": "231938561",
        "version": {
            "$key": "b494716e-6e87-45df-9b7c-1cc58b23c57c",
            "$table": "KernelVersion"
        },
        "kernel_series": {
            "$key": "fc683acd-38f8-4163-b6cf-e6cecaa6fd07",
            "$table": "KernelSeries"
        },
        "workspace": {
            "$key": "d2135fd1-3f59-4bf6-814b-c807c1f7eff9",
            "$table": "Workspace"
        }
    }
}