{
    "9ac736d7-569a-4052-87f1-cd8f4f4784af": {
        "key": "9ac736d7-569a-4052-87f1-cd8f4f4784af",
        "type": "mainline",
        "build_job_id": "223722307",
        "version": {
            "$key": "9bfb3106-9b46-4cb2-82cd-fd7c0ea1cd5d",
            "$table": "KernelVersion"
        },
        "kernel_series": {
            "$key": "d9e104f5-bebb-45de-8702-b7de2a84f8d7",
            "$table": "KernelSeries"
        },
        "workspace": {
            "$key": "d2135fd1-3f59-4bf6-814b-c807c1f7eff9",
            "$table": "Workspace"
        }
    }
}