{
    "ac287860-475f-44a0-b915-3091af65ac6d": {
        "key": "ac287860-475f-44a0-b915-3091af65ac6d",
        "type": "mainline",
        "build_job_id": "295883634",
        "version": {
            "$key": "14d64293-43d1-44ac-b514-f8315dca9edc",
            "$table": "KernelVersion"
        },
        "kernel_series": {
            "$key": "a33396ca-c7ad-4f97-9c92-72ac341f361c",
            "$table": "KernelSeries"
        },
        "workspace": {
            "$key": "d2135fd1-3f59-4bf6-814b-c807c1f7eff9",
            "$table": "Workspace"
        }
    }
}