{
    "bf9bbea6-3052-4e84-b53e-d6117fad92ca": {
        "key": "bf9bbea6-3052-4e84-b53e-d6117fad92ca",
        "type": "mainline",
        "build_job_id": "132048541",
        "version": {
            "$key": "4ed4ef30-ca1b-400d-a947-17ccbf7534be",
            "$table": "KernelVersion"
        },
        "kernel_series": {
            "$key": "83aea4d0-b730-46d1-928e-cbb0afb57827",
            "$table": "KernelSeries"
        },
        "workspace": {
            "$key": "de136960-11fb-4d66-94ee-deab390f2e1e",
            "$table": "Workspace"
        }
    }
}