{
    "c267b95e-229a-4f0b-84b8-37bafca563f2": {
        "key": "c267b95e-229a-4f0b-84b8-37bafca563f2",
        "type": "stable",
        "build_job_id": "174763229",
        "version": {
            "$key": "4f6fe929-24bf-44c7-aa61-711e9722d19e",
            "$table": "KernelVersion"
        },
        "kernel_series": {
            "$key": "83aea4d0-b730-46d1-928e-cbb0afb57827",
            "$table": "KernelSeries"
        },
        "workspace": {
            "$key": "de136960-11fb-4d66-94ee-deab390f2e1e",
            "$table": "Workspace"
        }
    }
}