{
    "cb35538f-a8f3-44da-a082-4ac5bad8d619": {
        "key": "cb35538f-a8f3-44da-a082-4ac5bad8d619",
        "type": "mainline",
        "build_job_id": "151883663",
        "version": {
            "$key": "9c06fef0-486d-433a-9142-c01824de9550",
            "$table": "KernelVersion"
        },
        "kernel_series": {
            "$key": "e7b394ff-e108-4ff9-816d-bb7d36ea5e7d",
            "$table": "KernelSeries"
        },
        "workspace": {
            "$key": "8154adab-14d1-47d2-9e9e-cf9d7b81e4c7",
            "$table": "Workspace"
        }
    }
}