{
    "cb9c1203-7043-46b7-a32c-2295d6c236e4": {
        "key": "cb9c1203-7043-46b7-a32c-2295d6c236e4",
        "type": "stable",
        "build_job_id": "383624961",
        "version": {
            "$key": "48e7644c-887b-4d52-86a2-232edb47fafb",
            "$table": "KernelVersion"
        },
        "kernel_series": {
            "$key": "a33396ca-c7ad-4f97-9c92-72ac341f361c",
            "$table": "KernelSeries"
        },
        "workspace": {
            "$key": "d2135fd1-3f59-4bf6-814b-c807c1f7eff9",
            "$table": "Workspace"
        }
    }
}