{
    "cd13e7f4-e782-4add-a9bc-d148a6b0ac96": {
        "key": "cd13e7f4-e782-4add-a9bc-d148a6b0ac96",
        "type": "stable",
        "build_job_id": "753098291",
        "version": {
            "$key": "d0dec3bc-8153-4058-949a-0022e7709540",
            "$table": "KernelVersion"
        },
        "kernel_series": {
            "$key": "f5fca8d2-00f5-47f4-9604-e001f70daec2",
            "$table": "KernelSeries"
        },
        "workspace": {
            "$key": "8b64bbb4-15a6-4182-a6f8-8c18da47c46e",
            "$table": "Workspace"
        }
    }
}