{
    "d3d62748-7e2e-4427-a9c7-8b334c1014dc": {
        "key": "d3d62748-7e2e-4427-a9c7-8b334c1014dc",
        "type": "stable",
        "build_job_id": "796423175",
        "version": {
            "$key": "6428ecc4-3c33-4423-a110-f914ddf45284",
            "$table": "KernelVersion"
        },
        "kernel_series": {
            "$key": "f5fca8d2-00f5-47f4-9604-e001f70daec2",
            "$table": "KernelSeries"
        },
        "workspace": {
            "$key": "8b64bbb4-15a6-4182-a6f8-8c18da47c46e",
            "$table": "Workspace"
        }
    }
}