{
    "d4d35b91-bc5c-4516-b748-496f279cd751": {
        "key": "d4d35b91-bc5c-4516-b748-496f279cd751",
        "type": "mainline",
        "build_job_id": "166809138",
        "version": {
            "$key": "8a51dde2-9abc-43ac-95c3-93e25c84c31b",
            "$table": "KernelVersion"
        },
        "kernel_series": {
            "$key": "e7b394ff-e108-4ff9-816d-bb7d36ea5e7d",
            "$table": "KernelSeries"
        },
        "workspace": {
            "$key": "8154adab-14d1-47d2-9e9e-cf9d7b81e4c7",
            "$table": "Workspace"
        }
    }
}