{
    "d6916567-95e9-4ff7-8837-ff51132d7ce8": {
        "key": "d6916567-95e9-4ff7-8837-ff51132d7ce8",
        "type": "stable",
        "build_job_id": "191788236",
        "version": {
            "$key": "d079bccc-2c1b-4e27-b2d7-126a6efcbcd6",
            "$table": "KernelVersion"
        },
        "kernel_series": {
            "$key": "e7b394ff-e108-4ff9-816d-bb7d36ea5e7d",
            "$table": "KernelSeries"
        },
        "workspace": {
            "$key": "8154adab-14d1-47d2-9e9e-cf9d7b81e4c7",
            "$table": "Workspace"
        }
    }
}