{
    "ddf4424a-8e1b-4bc3-b468-ce87453b6a4b": {
        "key": "ddf4424a-8e1b-4bc3-b468-ce87453b6a4b",
        "type": "stable",
        "build_job_id": "177232253",
        "version": {
            "$key": "32bc5ab5-75c3-4383-ac15-1659177d5925",
            "$table": "KernelVersion"
        },
        "kernel_series": {
            "$key": "83aea4d0-b730-46d1-928e-cbb0afb57827",
            "$table": "KernelSeries"
        },
        "workspace": {
            "$key": "de136960-11fb-4d66-94ee-deab390f2e1e",
            "$table": "Workspace"
        }
    }
}