{
    "e28ee604-bbf0-49f6-940c-9193f9839bb1": {
        "key": "e28ee604-bbf0-49f6-940c-9193f9839bb1",
        "type": "stable",
        "build_job_id": "269632827",
        "version": {
            "$key": "dd8e252b-e54b-4da0-9fc7-9f4b7456f781",
            "$table": "KernelVersion"
        },
        "kernel_series": {
            "$key": "d9e104f5-bebb-45de-8702-b7de2a84f8d7",
            "$table": "KernelSeries"
        },
        "workspace": {
            "$key": "d2135fd1-3f59-4bf6-814b-c807c1f7eff9",
            "$table": "Workspace"
        }
    }
}