{
    "f07fd1a6-c95e-4887-b142-e730aea0190c": {
        "key": "f07fd1a6-c95e-4887-b142-e730aea0190c",
        "type": "stable",
        "build_job_id": "348776307",
        "version": {
            "$key": "83a1938f-f36b-4bb1-ad39-97b170fc5b55",
            "$table": "KernelVersion"
        },
        "kernel_series": {
            "$key": "a33396ca-c7ad-4f97-9c92-72ac341f361c",
            "$table": "KernelSeries"
        },
        "workspace": {
            "$key": "d2135fd1-3f59-4bf6-814b-c807c1f7eff9",
            "$table": "Workspace"
        }
    }
}