{
    "ff493882-3c19-4b45-83d5-89e36fec1444": {
        "key": "ff493882-3c19-4b45-83d5-89e36fec1444",
        "type": "stable",
        "build_job_id": "219305267",
        "version": {
            "$key": "6edea147-1aad-47de-ae42-e6fc71efab91",
            "$table": "KernelVersion"
        },
        "kernel_series": {
            "$key": "fc683acd-38f8-4163-b6cf-e6cecaa6fd07",
            "$table": "KernelSeries"
        },
        "workspace": {
            "$key": "d2135fd1-3f59-4bf6-814b-c807c1f7eff9",
            "$table": "Workspace"
        }
    }
}